<svg xmlns="http://www.w3.org/2000/svg" width="62.146" height="62.146" viewBox="0 0 62.146 62.146">
  <g id="Group_409" data-name="Group 409" transform="translate(-718.854 -459)">
    <path id="Path_1348" data-name="Path 1348" d="M31.073,0A31.073,31.073,0,1,1,0,31.073,31.073,31.073,0,0,1,31.073,0Z" transform="translate(718.854 459)" fill="#fff"/>
    <g id="shopping-bag" transform="translate(735 475)">
      <path id="Path_1349" data-name="Path 1349" d="M6.87,2,3,7.16V25.219A2.58,2.58,0,0,0,5.58,27.8H23.639a2.58,2.58,0,0,0,2.58-2.58V7.16L22.349,2Z" transform="translate(0 0)" fill="none" stroke="#ffb221" stroke-linecap="round" stroke-linejoin="round" stroke-width="3"/>
      <line id="Line_17" data-name="Line 17" x2="23.219" transform="translate(3 7.16)" fill="none" stroke="#ffb221" stroke-linecap="round" stroke-linejoin="round" stroke-width="3"/>
      <path id="Path_1350" data-name="Path 1350" d="M18.319,10A5.16,5.16,0,0,1,8,10" transform="translate(1.45 2.319)" fill="none" stroke="#ffb221" stroke-linecap="round" stroke-linejoin="round" stroke-width="3"/>
    </g>
  </g>
</svg>
