<?xml version="1.0" encoding="utf-8"?>
<!-- Generator: Adobe Illustrator 23.0.4, SVG Export Plug-In . SVG Version: 6.00 Build 0)  -->
<svg version="1.1" id="Layer_1" xmlns="http://www.w3.org/2000/svg" xmlns:xlink="http://www.w3.org/1999/xlink" x="0px" y="0px"
	 viewBox="0 0 1440 20" style="enable-background:new 0 0 1440 20;" xml:space="preserve">
<style type="text/css">
	.st0{fill:#089CAB;}
</style>
<g id="Group_406" transform="translate(9 -538)">
	<g transform="matrix(1, 0, 0, 1, -9, 538)">
		<path id="Union_2-2" class="st0" d="M706,6H0V0h1440v6H735l-14.5,14L706,6z M1440,6L1440,6z"/>
	</g>
</g>
</svg>
