<svg xmlns="http://www.w3.org/2000/svg" xmlns:xlink="http://www.w3.org/1999/xlink" width="659" height="325" viewBox="0 0 659 325">
  <defs>
    <clipPath id="clip-Bitz_Logo_2">
      <rect width="659" height="325"/>
    </clipPath>
  </defs>
  <g id="Bitz_Logo_2" data-name="Bitz_Logo – 2" clip-path="url(#clip-Bitz_Logo_2)">
    <g id="Group_1" data-name="Group 1">
      <g id="Logo" transform="translate(0 0)">
        <g id="Group_272" data-name="Group 272" transform="translate(78.045 85.567)">
          <path id="Path_1131" data-name="Path 1131" d="M-14491.756-4410.6l-66.764-37.561-65.033,38.47,65.98,40.9Z" transform="translate(14623.553 4448.165)" fill="#ffcf74"/>
          <path id="Path_1132" data-name="Path 1132" d="M-14492.768-4415.885l-65.752-43.814-65.033,43.814,65.033,40.61Z" transform="translate(14624.496 4614.708)" fill="#e69700"/>
          <path id="Path_1133" data-name="Path 1133" d="M-14624.358-4325.227v160.02l65.816-40.779v-161.058Z" transform="translate(14690.344 4404.591)" fill="#ffb221"/>
        </g>
        <g id="Group_293" data-name="Group 293">
          <path id="Path_1131-2" data-name="Path 1131" d="M-14623.553-4410.605l66.771-37.559,65.039,38.47-65.986,40.894Z" transform="translate(14623.553 4448.164)" fill="#6cdbe6"/>
          <path id="Path_1132-2" data-name="Path 1132" d="M-14623.553-4415.883l65.748-43.817,65.037,43.817-65.037,40.6Z" transform="translate(14623.626 4614.708)" fill="#066c76"/>
          <path id="Path_1133-2" data-name="Path 1133" d="M-14558.542-4325.224v160.017l-65.816-40.777v-161.061Z" transform="translate(14624.358 4404.591)" fill="#0bc3d6"/>
        </g>
      </g>
      <g id="Bitz" transform="translate(291.793 113.727)">
        <rect id="Rectangle_819" data-name="Rectangle 819" width="27.907" height="108.409" transform="translate(137.132 39.658)" fill="#fff"/>
        <rect id="Rectangle_820" data-name="Rectangle 820" width="27.907" height="23.614" transform="translate(137.132 1.017)" fill="#fff"/>
        <path id="Path_1150" data-name="Path 1150" d="M1410.338,862.217h26.46v96.746s1.085,5.157,3.613,7.713,6.51,2.512,6.51,2.512h22.629v24.578h-22.629s-16.593-2.113-25.74-10.814-10.843-23.989-10.843-23.989V899.593h0Z" transform="translate(-1219.175 -846.611)" fill="#fff"/>
        <path id="Path_1151" data-name="Path 1151" d="M1469.133,897.9v23.2h-4.973l-22.733-14.109V897.9Z" transform="translate(-1219.042 -858.239)" fill="#fff"/>
        <path id="Path_1152" data-name="Path 1152" d="M1478.419,962.115h104.106v24.267H1478.419Z" transform="translate(-1214.179 -839.283)" fill="#fff"/>
        <path id="Exclusion_1" data-name="Exclusion 1" d="M29.051,146.82h0l-29.05,0V0H73.461A42.24,42.24,0,0,1,86.65,3.577a49.044,49.044,0,0,1,11.987,7.518,53.233,53.233,0,0,1,11.584,14.04,39.219,39.219,0,0,1,5.372,16.875,36.736,36.736,0,0,1-1.673,13.748,39.258,39.258,0,0,1-6.68,12.644c.045.016,4.654,1.721,9.169,7.248a36.723,36.723,0,0,1,6.262,11.644,59.783,59.783,0,0,1,2.759,19.3,35.346,35.346,0,0,1-5.856,19.615,44.381,44.381,0,0,1-12.7,12.345,64.322,64.322,0,0,1-12.661,6.423,51.722,51.722,0,0,1-5.748,1.843H76.3L45.87,127.412v-5.5l36.787.033h0a19.823,19.823,0,0,0,6.687-3.169,16.25,16.25,0,0,0,4.6-5.11,17,17,0,0,0,2.092-8.475,17.222,17.222,0,0,0-2.092-8.512,16.674,16.674,0,0,0-4.6-5.191,20.235,20.235,0,0,0-6.692-3.291l-53.605,0V146.82Zm.014-120.9h0V59.553H73.181a17.252,17.252,0,0,0,6.237-3.191,16.012,16.012,0,0,0,4.291-5.242,19.162,19.162,0,0,0,1.951-8.792,18.378,18.378,0,0,0-1.951-8.666A14.61,14.61,0,0,0,79.418,28.7a15.871,15.871,0,0,0-6.243-2.78l-44.11,0Z" transform="translate(0 0)" fill="#fff"/>
        <path id="Path_1154" data-name="Path 1154" d="M1525.063,963.61,1500.681,948.6l44.81-38.412h-64.4V887.17h104.3v27.339Z" transform="translate(-1223.644 -846.927)" fill="#fff"/>
        <rect id="Rectangle_822" data-name="Rectangle 822" width="17.174" height="23.614" transform="translate(174.7 39.658)" fill="#fff"/>
      </g>
    </g>
  </g>
</svg>
